…
```{.r .cell-code}
#es <- understat_league_match_results(league = "La liga", season_start_year = 2021) |  #es <- understat_league_match_results(league = "La liga", season_start_year = 2021) |> as_tibble
es
```
:::
::::
 
:::: {.column width='60%'}
::: {.cell}
::: {.cell-output .cell-output-stdout}

```
# A tibble: 380 × 18
   league season match_id isResult home_id home_team home_abbr away_id away_team
   <chr>  <chr>  <chr>    <lgl>    <chr>   <chr>     <chr>     <chr>   <chr>    
 1 La_li… 2021/… 17136    TRUE     146     Valencia  VAL       142     Getafe   
 2 La_li… 2021/… 17138    TRUE     239     Mallorca  MAL       153     Real Bet…
 3 La_li… 2021/… 17139    TRUE     261     Cadiz     CAD       151     Levante  
 4 La_li… 2021/… 17137    TRUE     157     Osasuna   OSA       141     Espanyol 
 5 La_li… 2021/… 17140    TRUE     158     Alaves    ALA       150     Real Mad…
 6 La_li… 2021/… 17141    TRUE     152     Celta Vi… CEL       143     Atletico…
 7 La_li… 2021/… 17142    TRUE     148     Barcelona BAR       140     Real Soc…
 8 La_li… 2021/… 17143    TRUE     138     Sevilla   SEV       145     Rayo Val…
 9 La_li… 2021/… 17144    TRUE     154     Villarre… VIL       155     Granada  
10 La_li… 2021/… 17145    TRUE     207     Elche     ELC       147     Athletic…
# ℹ 370 more rows
# ℹ 9 more variables: away_abbr <chr>, home_goals <dbl>, away_goals <dbl>,
#   home_xG <dbl>, away_xG <dbl>, datetime <chr>, forecast_win <dbl>,
#   forecast_draw <dbl>, forecast_loss <dbl>
```
…
```{.r .cell-code}
#es <- understat_league_match_results(league = "La liga", season_start_year = 2021) |  #es <- understat_league_match_results(league = "La liga", season_start_year = 2021) |> as_tibble
es |>
  filter(year(datetime) == "2022")
```
:::
::::
 
:::: {.column width='60%'}
::: {.cell}
::: {.cell-output .cell-output-stdout}

```
# A tibble: 198 × 18
   league season match_id isResult home_id home_team home_abbr away_id away_team
   <chr>  <chr>  <chr>    <lgl>    <chr>   <chr>     <chr>     <chr>   <chr>    
 1 La_li… 2021/… 17323    TRUE     142     Getafe    GET       150     Real Mad…
 2 La_li… 2021/… 17316    TRUE     207     Elche     ELC       155     Granada  
 3 La_li… 2021/… 17320    TRUE     143     Atletico… ATL       145     Rayo Val…
 4 La_li… 2021/… 17319    TRUE     158     Alaves    ALA       140     Real Soc…
 5 La_li… 2021/… 17321    TRUE     153     Real Bet… BET       152     Celta Vi…
 6 La_li… 2021/… 17322    TRUE     239     Mallorca  MAL       148     Barcelona
 7 La_li… 2021/… 17318    TRUE     154     Villarre… VIL       151     Levante  
 8 La_li… 2021/… 17325    TRUE     157     Osasuna   OSA       147     Athletic…
 9 La_li… 2021/… 17324    TRUE     261     Cadiz     CAD       138     Sevilla  
10 La_li… 2021/… 17329    TRUE     151     Levante   LEV       239     Mallorca 
# ℹ 188 more rows
# ℹ 9 more variables: away_abbr <chr>, home_goals <dbl>, away_goals <dbl>,
#   home_xG <dbl>, away_xG <dbl>, datetime <chr>, forecast_win <dbl>,
#   forecast_draw <dbl>, forecast_loss <dbl>
```
…
```{.r .cell-code}
#es <- understat_league_match_results(league = "La liga", season_start_year = 2021) |  #es <- understat_league_match_results(league = "La liga", season_start_year = 2021) |> as_tibble
es |>
  filter(year(datetime) == "2022") |>
  select(home_team, away_team, home_goals, away_goals, home_xG, away_xG)
```
:::
::::
 
:::: {.column width='60%'}
::: {.cell}
::: {.cell-output .cell-output-stdout}

```
# A tibble: 198 × 6
   home_team       away_team      home_goals away_goals home_xG away_xG
   <chr>           <chr>               <dbl>      <dbl>   <dbl>   <dbl>
 1 Getafe          Real Madrid             1          0   0.900   0.913
 2 Elche           Granada                 0          0   1.45    0.966
 3 Atletico Madrid Rayo Vallecano          2          0   1.98    0.104
 4 Alaves          Real Sociedad           1          1   1.54    1.38 
 5 Real Betis      Celta Vigo              0          2   0.889   1.87 
 6 Mallorca        Barcelona               0          1   0.989   1.62 
 7 Villarreal      Levante                 5          0   4.19    0.423
 8 Osasuna         Athletic Club           1          3   0.522   2.49 
 9 Cadiz           Sevilla                 0          1   0.239   1.28 
10 Levante         Mallorca                2          0   1.32    1.17 
# ℹ 188 more rows
```
…
:::: {.column width='60%'}
::: {.cell}
::: {.cell-output .cell-output-stdout}

```
# A tibble: 396 × 6
   home_goals away_goals home_xG away_xG home      team           
        <dbl>      <dbl>   <dbl>   <dbl> <chr>     <chr>          
 1          1          0   0.900   0.913 home_team Getafe         
 2          1          0   0.900   0.913 away_team Real Madrid    
 3          0          0   1.45    0.966 home_team Elche          
 4          0          0   1.45    0.966 away_team Granada        
 5          2          0   1.98    0.104 home_team Atletico Madrid
 6          2          0   1.98    0.104 away_team Rayo Vallecano 
 7          1          1   1.54    1.38  home_team Alaves         
 8          1          1   1.54    1.38  away_team Real Sociedad  
 9          0          2   0.889   1.87  home_team Real Betis     
10          0          2   0.889   1.87  away_team Celta Vigo     
# ℹ 386 more rows
```
…
:::: {.column width='60%'}
::: {.cell}
::: {.cell-output .cell-output-stdout}

```
# A tibble: 396 × 6
   team            home      home_goals away_goals home_xG away_xG
   <chr>           <chr>          <dbl>      <dbl>   <dbl>   <dbl>
 1 Getafe          home_team          1          0   0.900   0.913
 2 Real Madrid     away_team          1          0   0.900   0.913
 3 Elche           home_team          0          0   1.45    0.966
 4 Granada         away_team          0          0   1.45    0.966
 5 Atletico Madrid home_team          2          0   1.98    0.104
 6 Rayo Vallecano  away_team          2          0   1.98    0.104
 7 Alaves          home_team          1          1   1.54    1.38 
 8 Real Sociedad   away_team          1          1   1.54    1.38 
 9 Real Betis      home_team          0          2   0.889   1.87 
10 Celta Vigo      away_team          0          2   0.889   1.87 
# ℹ 386 more rows
```
…
:::: {.column width='60%'}
::: {.cell}
::: {.cell-output .cell-output-stdout}

```
# A tibble: 396 × 7
   team            home      home_goals away_goals home_xG away_xG  excess
   <chr>           <chr>          <dbl>      <dbl>   <dbl>   <dbl>   <dbl>
 1 Getafe          home_team          1          0   0.900   0.913  0.100 
 2 Real Madrid     away_team          1          0   0.900   0.913 -0.913 
 3 Elche           home_team          0          0   1.45    0.966 -1.45  
 4 Granada         away_team          0          0   1.45    0.966 -0.966 
 5 Atletico Madrid home_team          2          0   1.98    0.104  0.0190
 6 Rayo Vallecano  away_team          2          0   1.98    0.104 -0.104 
 7 Alaves          home_team          1          1   1.54    1.38  -0.541 
 8 Real Sociedad   away_team          1          1   1.54    1.38  -0.381 
 9 Real Betis      home_team          0          2   0.889   1.87  -0.889 
10 Celta Vigo      away_team          0          2   0.889   1.87   0.128 
# ℹ 386 more rows
```
…
:::: {.column width='60%'}
::: {.cell}
::: {.cell-output .cell-output-stdout}

```
# A tibble: 396 × 7
# Groups:   team [20]
   team            home      home_goals away_goals home_xG away_xG  excess
   <chr>           <chr>          <dbl>      <dbl>   <dbl>   <dbl>   <dbl>
 1 Getafe          home_team          1          0   0.900   0.913  0.100 
 2 Real Madrid     away_team          1          0   0.900   0.913 -0.913 
 3 Elche           home_team          0          0   1.45    0.966 -1.45  
 4 Granada         away_team          0          0   1.45    0.966 -0.966 
 5 Atletico Madrid home_team          2          0   1.98    0.104  0.0190
 6 Rayo Vallecano  away_team          2          0   1.98    0.104 -0.104 
 7 Alaves          home_team          1          1   1.54    1.38  -0.541 
 8 Real Sociedad   away_team          1          1   1.54    1.38  -0.381 
 9 Real Betis      home_team          0          2   0.889   1.87  -0.889 
10 Celta Vigo      away_team          0          2   0.889   1.87   0.128 
# ℹ 386 more rows
```
…
